Analysing spatial data using R
…
The soil_physico and soil_texture data sets contain the same columns, so we might as well merge them together. We will use the dplyr::left_join() function.

Code

# Actually I just want to merge these two together
soil_df <- left_join(
  soil_physico,
  soil_texture,
  by = join_by(Habitat_type, Plot_name, Subplot_name, Soil_depth)
)
soil_df

# A tibble: 144 × 20
   Habitat_type Plot_name Subplot_name Soil_depth Nitrogen Phosphorus Magnesium
   <chr>        <chr>     <chr>        <chr>         <dbl>      <dbl>     <dbl>
 1 Intact       KU1       A            0-15          0.617      0.248     0    
 2 Intact       KU1       A            30-50         0.188      0.129     0.045
 3 Intact       KU1       B            0-15          0.663      0.259     0.054
 4 Intact       KU1       B            30-50         0.2        0.295     0.035
 5 Intact       KU1       C            0-15          0.465      0.172     0.079
 6 Intact       KU1       C            30-50         0.255      0.145     0.043
 7 Intact       KU1       D            0-15          0.285      0.225     0.052
 8 Intact       KU1       D            30-50         0.057      0.207     0.031
 9 Intact       KU2       A            0-15          0.37       0.135     0.038
10 Intact       KU2       A            30-50         0.114      0.168     0.021
# ℹ 134 more rows
# ℹ 13 more variables: Calcium <dbl>, Potassium <dbl>,
#   Exchangable_magnesium <dbl>, Exchangable_calcium <dbl>,
#   Exchangable_potassium <dbl>, Available_phosphorus <dbl>, pH <dbl>,
#   Gravimetric_water_content <dbl>, Organic_matter <dbl>, Clay <dbl>,
#   Silt <dbl>, Sand <dbl>, Texture_classification <chr>
…
Code

brd_mjr <- 
  brd |>
  filter(highway %in% c("motorway", "trunk", "primary", "secondary")) 
brd_mjr

Simple feature collection with 1887 features and 14 fields
Geometry type: LINESTRING
Dimension:     XY
Bounding box:  xmin: 114.1906 ymin: 4.516642 xmax: 115.2021 ymax: 5.037115
Geodetic CRS:  WGS 84
# A tibble: 1,887 × 15
   name     `name:en` highway surface smoothness width lanes oneway bridge layer
 * <chr>    <chr>     <chr>   <chr>   <chr>      <chr> <chr> <chr>  <chr>  <chr>
 1 Lebuhra… Tutong–T… trunk   asphalt <NA>       <NA>  2     yes    <NA>   <NA> 
 2 Lebuhra… Tutong–T… trunk   asphalt <NA>       <NA>  3     yes    <NA>   <NA> 
 3 Jalan S… <NA>      primary asphalt <NA>       <NA>  2     yes    yes    1    
 4 Jalan S… <NA>      primary asphalt <NA>       <NA>  2     yes    <NA>   <NA> 
 5 Lebuh R… Seria–Be… trunk   asphalt <NA>       <NA>  2     yes    <NA>   <NA> 
 6 <NA>     <NA>      trunk   asphalt <NA>       <NA>  2     yes    <NA>   <NA> 
 7 <NA>     <NA>      primary asphalt <NA>       <NA>  1     yes    <NA>   <NA> 
 8 Lebuh R… Seria–Be… trunk   asphalt <NA>       <NA>  2     yes    yes    1    
 9 <NA>     <NA>      primary asphalt <NA>       <NA>  2     yes    <NA>   <NA> 
10 Lebuhra… Telisai–… trunk   asphalt <NA>       <NA>  2     yes    <NA>   <NA> 
# ℹ 1,877 more rows
# ℹ 5 more variables: source <chr>, `name:ms` <chr>, osm_id <int>,
#   osm_type <chr>, geometry <LINESTRING [°]>
…
Simple feature collection with 100 features and 4 fields
Geometry type: LINESTRING
Dimension:     XY
Bounding box:  xmin: 114.1735 ymin: 4.31172 xmax: 114.6695 ymax: 4.69715
Geodetic CRS:  WGS 84
# A tibble: 100 × 5
   src   dst   duration distance                                        geometry
   <chr> <chr>    <dbl>    <dbl>                                <LINESTRING [°]>
 1 1     dst       7.05     4.95 (114.2279 4.57929, 114.2286 4.57936, 114.2293 …
 2 1     dst      30.1     34.5  (114.4349 4.65194, 114.4349 4.65194, 114.435 4…
 3 1     dst      34.1     37.3  (114.4722 4.67361, 114.4722 4.67361, 114.4726 …
 4 1     dst       7.81     5.13 (114.2398 4.59042, 114.2398 4.59042, 114.2398 …
 5 1     dst       3.40     1.94 (114.2081 4.58047, 114.208 4.58063, 114.208 4.…
 6 1     dst       9.88     7.01 (114.2519 4.59031, 114.2512 4.59006, 114.2512 …
 7 1     dst      13.7     11.0  (114.2725 4.58835, 114.2707 4.58774, 114.2708 …
 8 1     dst      11.4      8.60 (114.2707 4.59975, 114.2702 4.59957, 114.2701 …
 9 1     dst       7.17     4.73 (114.2289 4.58423, 114.2296 4.58426, 114.2298 …
10 1     dst      12.5      9.17 (114.2751 4.6017, 114.2751 4.60168, 114.2751 4…
# ℹ 90 more rows
…
